HGVSP	WT	Mutant_cons	Mutant	HLA-A0101_score_wt	HLA-A0101_score_mut	HLA-A0201_score_wt	HLA-A0201_score_mut	HLA-A0301_score_wt	HLA-A0301_score_mut	HLA-A2402_score_wt	HLA-A2402_score_mut	HLA-B0702_score_wt	HLA-B0702_score_mut
V483A	CNGVEGFNC	CNGXEGFNC	CNGAEGFNC	0.26596	0.26379	0.27696	0.27479	0.27696	0.27479	0.17816	0.17599	0.27696	0.27479
V483A	GSTPCNGVE	GSTPCNGXE	GSTPCNGAE	-0.01703	-0.01829	-0.00443	-0.00569	-0.00443	-0.00569	-0.03303	-0.03429	-0.00443	-0.00569
V483A	PCNGVEGFN	PCNGXEGFN	PCNGAEGFN	0.26555	0.26345	0.26345	0.26135	0.26345	0.26135	0.23485	0.23275	0.26345	0.26135
V483A	AGSTPCNGV	AGSTPCNGX	AGSTPCNGA	-0.00815	-0.00815	-0.06185	-0.06185	-0.06185	-0.06185	-0.05639	-0.05639	-0.06185	-0.06185
V483A	STPCNGVEG	STPCNGXEG	STPCNGAEG	0.06469	0.06287	0.06109	0.05927	0.06109	0.05927	0.02625	0.02625	0.06109	0.05927
V483A	VEGFNCYFP	XEGFNCYFP	AEGFNCYFP	0.12603	0.12603	0.13703	0.13703	0.13703	0.13703	0.14015	0.14015	0.13703	0.13703
V483A	TPCNGVEGF	TPCNGXEGF	TPCNGAEGF	0.16965	0.16762	0.15215	0.15012	0.15215	0.15012	0.06765	0.06562	0.15215	0.15012
V483A	GVEGFNCYF	GXEGFNCYF	GAEGFNCYF	0.09435	0.09435	0.12685	0.12685	0.12685	0.12685	0.17235	0.17235	0.12685	0.12685
V483A	NGVEGFNCY	NGXEGFNCY	NGAEGFNCY	0.20699	0.20699	0.22039	0.21969	0.22039	0.21969	0.22585	0.22515	0.22039	0.21969
